-------------------------------------------------------------------------------
Test set: com.graphql.BasicApplicationTests
-------------------------------------------------------------------------------
Tests run: 2, Failures: 0, Errors: 0, Skipped: 0, Time elapsed: 6.922 s - in com.graphql.BasicApplicationTests
